# Blender v2.79 (sub 0) OBJ File: 'kostkaD12.blend'
# www.blender.org
mtllib kostkaD12.mtl
o Icosphere_Icosphere.001
v 55.852726 -47.701431 36.799858
v 54.842396 -48.472504 37.534542
v 54.456421 -47.700546 36.346638
v 55.597511 -48.078636 36.985489
v 55.449883 -47.782707 36.530544
v 55.292442 -48.114769 36.714012
v 54.694538 -48.359116 37.079773
v 55.229588 -48.359444 37.253029
v 55.052780 -48.297661 36.888275
v 54.941395 -47.782387 36.365486
v 54.553974 -48.077995 36.647171
v 54.961330 -48.114571 36.606644
v 88.417526 -47.701431 81.621422
v 88.417084 -47.700546 83.089432
v 87.406586 -48.472511 82.355263
v 88.549179 -47.782707 82.087769
v 88.162109 -48.078636 81.806786
v 88.326035 -48.114769 82.180809
v 88.161407 -48.077995 82.903778
v 88.549026 -47.782387 82.622375
v 88.325821 -48.114578 82.528893
v 87.793961 -48.359436 82.074028
v 87.793411 -48.359116 82.636414
v 88.086227 -48.297661 82.354889
v 117.852776 0.727248 82.404793
v 117.613350 -0.521265 83.138962
v 117.613350 -0.521264 81.670631
v 117.924278 0.330278 82.686195
v 117.924141 0.330581 82.123749
v 117.999619 0.041257 82.405373
v 117.745110 -0.602803 82.672562
v 117.837090 -0.124382 82.953552
v 117.942810 -0.254898 82.579506
v 117.836960 -0.124087 81.856392
v 117.745125 -0.602808 82.137840
v 117.942787 -0.254812 82.231369
v 103.289101 29.854618 127.226349
v 102.425415 29.854620 128.413422
v 103.049942 28.605560 127.959671
v 103.121429 29.936024 127.680969
v 103.360687 29.457478 127.507477
v 103.226280 29.587934 127.872154
v 102.715157 29.457132 128.394440
v 102.806908 29.936028 128.113266
v 103.021469 29.587833 128.153595
v 103.273590 29.002617 127.774529
v 102.942589 29.002264 128.229202
v 103.169540 29.291656 128.046097
v 0.878731 -47.647041 110.137589
v 2.126347 -48.418114 110.137589
v 1.741802 -47.647041 111.325500
v 1.194046 -48.023949 110.137680
v 1.046688 -47.728477 110.592941
v 1.281586 -48.060158 110.537483
v 1.978870 -48.304741 110.592865
v 1.648384 -48.304756 110.137680
v 1.577374 -48.242996 110.537460
v 1.360996 -47.728470 111.025543
v 1.838833 -48.023941 111.025467
v 1.486191 -48.060143 110.819183
v 54.816628 -48.418991 127.256973
v 55.825966 -47.647919 127.990295
v 54.430649 -47.647034 128.444885
v 55.203384 -48.305527 127.538086
v 54.668671 -48.305183 127.712326
v 55.026260 -48.243416 127.903572
v 55.422962 -47.729111 128.260254
v 55.570953 -48.024727 127.805130
v 55.265594 -48.060616 128.077423
v 54.528111 -48.024055 128.144928
v 54.914833 -47.728790 128.425797
v 54.934700 -48.060402 128.185242
v 64.827255 -0.520387 155.691101
v 64.203438 0.727242 156.144318
v 63.430779 -0.520387 156.144836
v 64.719849 -0.123713 155.960541
v 64.423714 -0.601823 155.960770
v 64.395981 -0.254363 156.177002
v 63.957710 0.330464 156.299469
v 64.492676 0.330635 156.125580
v 64.248108 0.041454 156.284485
v 63.915157 -0.601820 156.126007
v 63.676338 -0.123879 156.299667
v 64.064865 -0.254412 156.284607
v 17.074951 29.854616 156.144333
v 15.680075 29.854614 155.691116
v 16.304602 28.605556 156.144852
v 16.590874 29.935947 156.125580
v 16.829960 29.457382 156.299484
v 16.441597 29.587879 156.284485
v 15.787701 29.457256 155.960785
v 16.082903 29.935949 155.960541
v 16.110880 29.587843 156.177032
v 16.549425 29.002518 156.299683
v 16.015139 29.002386 156.126007
v 16.258919 29.291656 156.284637
v -22.684361 -0.520383 127.256973
v -21.821285 -0.520383 128.444885
v -22.446083 0.727245 127.990295
v -22.516396 -0.601818 127.712326
v -22.755840 -0.123707 127.538078
v -22.621059 -0.254358 127.903564
v -22.110947 -0.123877 128.425797
v -22.202084 -0.601815 128.144928
v -22.416428 -0.254408 128.185242
v -22.669067 0.330639 127.805130
v -22.338478 0.330466 128.260254
v -22.564606 0.041458 128.077423
v 1.681427 -47.647926 53.467392
v 2.067951 -48.418999 54.655296
v 0.818901 -47.647041 54.655296
v 1.778954 -48.024719 53.767292
v 1.300358 -47.729248 53.767479
v 1.425667 -48.060661 53.973721
v 1.589050 -48.305191 54.655388
v 1.919708 -48.305527 54.199886
v 1.517273 -48.243423 54.255451
v 0.986259 -47.728928 54.200069
v 1.134190 -48.024063 54.655384
v 1.221088 -48.060455 54.255508
v -37.069595 29.854607 81.621422
v -37.307152 28.605547 82.355263
v -37.068604 29.854607 83.089432
v -37.292763 29.457462 81.806778
v -37.201164 29.936014 82.087769
v -37.398369 29.587923 82.180809
v -37.378716 29.002254 82.636414
v -37.379272 29.002602 82.074013
v -37.454712 29.291645 82.354889
v -37.200813 29.936018 82.622375
v -37.291847 29.457121 82.903778
v -37.398109 29.587822 82.528885
v -21.882103 -0.520384 36.346642
v -22.745178 -0.520383 37.534546
v -22.505917 0.727247 36.799862
v -22.263268 -0.601820 36.647091
v -22.171539 -0.123709 36.365528
v -22.477497 -0.254360 36.606644
v -22.816544 -0.123879 37.253166
v -22.577576 -0.601817 37.079697
v -22.682159 -0.254411 36.888306
v -22.398712 0.330638 36.530575
v -22.729416 0.330465 36.985619
v -22.625412 0.041458 36.714062
v 17.074955 29.854607 8.563484
v 16.303617 28.605549 8.564323
v 15.679090 29.854609 9.018066
v 16.829704 29.457462 8.408531
v 16.590765 29.936008 8.582466
v 16.441345 29.587921 8.423660
v 16.014105 29.002249 8.583122
v 16.548813 29.002604 8.408836
v 16.258375 29.291645 8.423866
v 16.082434 29.936012 8.748009
v 15.786667 29.457119 8.748360
v 16.110378 29.587820 8.531479
v 64.203438 0.727250 8.563484
v 64.827690 -0.521262 9.018066
v 63.431213 -0.521261 8.564323
v 64.492783 0.330579 8.582474
v 63.957909 0.330280 8.408531
v 64.248268 0.041258 8.423653
v 64.424057 -0.602806 8.748360
v 64.720123 -0.124089 8.748009
v 64.396194 -0.254815 8.531471
v 63.676689 -0.124378 8.408836
v 63.915504 -0.602802 8.583122
v 64.065102 -0.254896 8.423866
v 103.288658 29.855505 37.484493
v 103.049942 28.605560 36.749805
v 102.424980 29.855507 36.295742
v 103.360542 29.457733 37.202759
v 103.120880 29.937092 37.028976
v 103.226074 29.588379 36.837170
v 102.942719 29.002554 36.479794
v 103.273605 29.002554 36.935219
v 103.169533 29.291862 36.662922
v 102.806358 29.937092 36.596069
v 102.715134 29.457729 36.314438
v 103.021286 29.588379 36.555302
v 79.682281 77.068748 110.137070
v 78.432343 77.841255 110.137070
v 78.819031 77.067863 111.324455
v 79.366547 77.446259 110.137161
v 79.514648 77.150024 110.592346
v 79.279404 77.482193 110.537048
v 78.580490 77.727234 110.592422
v 78.911362 77.727577 110.137161
v 78.983002 77.665344 110.537064
v 79.200287 77.149704 111.024750
v 78.721306 77.445595 111.024826
v 79.074677 77.481979 110.818695
v 25.647123 77.840363 127.226357
v 24.636898 77.067856 127.959686
v 26.033371 77.067856 128.413422
v 25.259895 77.726784 127.507492
v 25.794918 77.726799 127.680984
v 25.436682 77.664917 127.872162
v 25.039722 77.149246 128.229218
v 24.892012 77.445465 127.774536
v 25.197063 77.481667 128.046112
v 25.935577 77.445480 128.113281
v 25.548275 77.149246 128.394455
v 25.528191 77.481674 128.153610
v -6.917675 77.840370 82.404800
v -7.927292 77.067863 81.670631
v -7.927292 77.067863 83.138962
v -7.304382 77.726807 82.123749
v -7.304710 77.726791 82.686195
v -7.596905 77.664925 82.405373
v -8.059155 77.149261 82.137840
v -7.672054 77.445488 81.856392
v -7.836304 77.481689 82.231369
v -7.672371 77.445473 82.953552
v -8.059147 77.149254 82.672569
v -7.836391 77.481667 82.579506
v 26.032932 77.068741 36.295750
v 24.636902 77.067856 36.749809
v 25.646683 77.841248 37.484497
v 25.548132 77.150017 36.314484
v 25.935282 77.446243 36.595997
v 25.528038 77.482178 36.555305
v 24.891666 77.445587 36.935349
v 25.039753 77.149696 36.479839
v 25.196907 77.481972 36.662975
v 25.794622 77.727570 37.028900
v 25.259392 77.727234 37.202892
v 25.436420 77.665337 36.837196
v 79.655968 77.121368 54.654457
v 78.792282 77.121368 53.465710
v 78.406036 77.893875 54.654457
v 79.488190 77.202957 54.198936
v 79.339951 77.499397 54.654549
v 79.252571 77.535866 54.254738
v 78.694550 77.499397 53.766224
v 79.173660 77.202957 53.766037
v 79.047783 77.535866 53.972878
v 78.884766 77.780701 54.654549
v 78.553886 77.780701 54.199123
v 78.956116 77.719170 54.254799
vt 0.102370 0.791366
vt 0.004246 0.719478
vt 0.042117 0.604071
vt 0.163756 0.604483
vt 0.200953 0.720110
vt 0.222071 0.918391
vt 0.259323 0.802780
vt 0.380964 0.802360
vt 0.418889 0.918124
vt 0.320579 0.989757
vt 0.398989 0.800668
vt 0.300431 0.729377
vt 0.337602 0.613743
vt 0.459242 0.613419
vt 0.497139 0.728817
vt 0.665482 0.209444
vt 0.786940 0.209521
vt 0.824399 0.325060
vt 0.726092 0.396389
vt 0.627875 0.324934
vt 0.796621 0.489782
vt 0.834262 0.374114
vt 0.955724 0.374114
vt 0.993367 0.489782
vt 0.895103 0.561176
vt 0.822209 0.797513
vt 0.723726 0.726119
vt 0.761367 0.610452
vt 0.882829 0.610452
vt 0.920473 0.726118
vt 0.874668 0.254616
vt 0.776578 0.182684
vt 0.814678 0.067355
vt 0.936315 0.068010
vt 0.973282 0.183707
vt 0.645190 0.428964
vt 0.766828 0.429571
vt 0.803907 0.545237
vt 0.705292 0.616451
vt 0.607200 0.544520
vt 0.213189 0.918730
vt 0.114475 0.989809
vt 0.016440 0.918096
vt 0.054280 0.802489
vt 0.175919 0.802753
vt 0.799113 0.799465
vt 0.836824 0.915111
vt 0.738382 0.986562
vt 0.639939 0.915110
vt 0.677649 0.799465
vt 0.550535 0.612621
vt 0.672000 0.612621
vt 0.709709 0.728268
vt 0.611266 0.799719
vt 0.512823 0.728267
vt 0.272935 0.189137
vt 0.272475 0.190636
vt 0.271261 0.190673
vt 0.271187 0.189418
vt 0.272070 0.192042
vt 0.271080 0.191586
vt 0.271698 0.193229
vt 0.270638 0.192585
vt 0.269402 0.191816
vt 0.270320 0.191018
vt 0.268059 0.191037
vt 0.269511 0.190078
vt 0.333319 0.226423
vt 0.333700 0.227573
vt 0.332979 0.228024
vt 0.332499 0.227322
vt 0.333932 0.228658
vt 0.333168 0.228644
vt 0.334019 0.229614
vt 0.333166 0.229393
vt 0.332264 0.229211
vt 0.332558 0.228520
vt 0.331385 0.229087
vt 0.331848 0.228230
vt 0.406776 0.221877
vt 0.405247 0.222000
vt 0.404772 0.220906
vt 0.405903 0.220384
vt 0.403818 0.222153
vt 0.403863 0.221076
vt 0.402598 0.222283
vt 0.402769 0.221046
vt 0.403019 0.219596
vt 0.404107 0.220160
vt 0.403256 0.218043
vt 0.404689 0.219062
vt 0.401425 0.295939
vt 0.400338 0.296788
vt 0.399596 0.296201
vt 0.400143 0.295431
vt 0.399278 0.297414
vt 0.399027 0.296623
vt 0.398316 0.297812
vt 0.398261 0.296881
vt 0.398127 0.295919
vt 0.398930 0.295957
vt 0.397926 0.295012
vt 0.398953 0.295128
vt 0.286907 0.288765
vt 0.287238 0.288072
vt 0.287792 0.288220
vt 0.287647 0.288773
vt 0.287654 0.287404
vt 0.288041 0.287830
vt 0.288132 0.286803
vt 0.288467 0.287456
vt 0.288781 0.288109
vt 0.288250 0.288232
vt 0.289052 0.288723
vt 0.288379 0.288762
vt 0.323891 0.273037
vt 0.324598 0.273115
vt 0.324637 0.273652
vt 0.324102 0.273692
vt 0.325318 0.273270
vt 0.325062 0.273751
vt 0.326007 0.273495
vt 0.325532 0.274012
vt 0.325043 0.274505
vt 0.324768 0.274065
vt 0.324567 0.274943
vt 0.324331 0.274343
vt 0.350429 0.301798
vt 0.350599 0.302506
vt 0.350097 0.302727
vt 0.349875 0.302227
vt 0.350695 0.303254
vt 0.350145 0.303169
vt 0.350707 0.303996
vt 0.350051 0.303709
vt 0.349415 0.303403
vt 0.349745 0.302992
vt 0.348837 0.303093
vt 0.349331 0.302666
vt 0.332573 0.337956
vt 0.331911 0.338353
vt 0.331538 0.337911
vt 0.331966 0.337537
vt 0.331192 0.338676
vt 0.331119 0.338107
vt 0.330462 0.338909
vt 0.330552 0.338178
vt 0.330658 0.337456
vt 0.331167 0.337652
vt 0.330782 0.336796
vt 0.331357 0.337141
vt 0.289446 0.329147
vt 0.290178 0.329012
vt 0.290414 0.329538
vt 0.289889 0.329777
vt 0.290908 0.328900
vt 0.290868 0.329450
vt 0.291585 0.328823
vt 0.291418 0.329483
vt 0.291210 0.330187
vt 0.290726 0.329884
vt 0.290977 0.330893
vt 0.290409 0.330371
vt 0.242331 0.261071
vt 0.243720 0.261071
vt 0.243939 0.261996
vt 0.243029 0.262263
vt 0.244947 0.261239
vt 0.244648 0.262019
vt 0.245951 0.261531
vt 0.245410 0.262294
vt 0.244913 0.263131
vt 0.244310 0.262601
vt 0.244505 0.263959
vt 0.243775 0.263236
vt 0.252559 0.362844
vt 0.252991 0.361631
vt 0.253876 0.361722
vt 0.253828 0.362613
vt 0.253509 0.360597
vt 0.254117 0.361096
vt 0.254061 0.359787
vt 0.254591 0.360498
vt 0.255198 0.361202
vt 0.254531 0.361583
vt 0.255827 0.361833
vt 0.254935 0.362261
vt 0.197282 0.316010
vt 0.198527 0.316784
vt 0.198254 0.317895
vt 0.197122 0.317621
vt 0.199724 0.317492
vt 0.199059 0.318288
vt 0.200752 0.318123
vt 0.199866 0.318940
vt 0.198832 0.319862
vt 0.198361 0.318826
vt 0.197747 0.320857
vt 0.197277 0.319287
vt 0.000294 0.332796
vt 0.011464 0.327202
vt 0.015833 0.331973
vt 0.011974 0.337182
vt 0.019140 0.325859
vt 0.019374 0.330155
vt 0.023825 0.326309
vt 0.023049 0.329680
vt 0.023282 0.333369
vt 0.019459 0.333446
vt 0.024524 0.336660
vt 0.019798 0.337728
vt 0.188120 0.000294
vt 0.198286 0.009103
vt 0.195386 0.015394
vt 0.188675 0.013792
vt 0.202763 0.016187
vt 0.198605 0.018017
vt 0.204120 0.021146
vt 0.200454 0.021610
vt 0.196943 0.023229
vt 0.195515 0.019605
vt 0.194248 0.025620
vt 0.191412 0.021586
vt 0.593810 0.072507
vt 0.591909 0.068332
vt 0.595400 0.064879
vt 0.599420 0.069228
vt 0.588684 0.064636
vt 0.592514 0.061782
vt 0.584886 0.062191
vt 0.588737 0.057211
vt 0.597261 0.051017
vt 0.597735 0.059948
vt 0.614549 0.044871
vt 0.606575 0.061402
vt 0.427502 0.366319
vt 0.426922 0.368039
vt 0.425663 0.367760
vt 0.425901 0.366540
vt 0.425983 0.369619
vt 0.425166 0.368659
vt 0.424799 0.370915
vt 0.424223 0.369458
vt 0.423633 0.368101
vt 0.424709 0.367808
vt 0.423134 0.366925
vt 0.424405 0.366730
vt 0.351679 0.386746
vt 0.350582 0.385889
vt 0.350971 0.385018
vt 0.351863 0.385362
vt 0.349713 0.385011
vt 0.350419 0.384566
vt 0.349093 0.384183
vt 0.349975 0.383893
vt 0.350874 0.383515
vt 0.351045 0.384309
vt 0.351705 0.383083
vt 0.351860 0.384118
vt 0.290424 0.425196
vt 0.288742 0.425076
vt 0.288690 0.423875
vt 0.289849 0.423794
vt 0.287100 0.424612
vt 0.287764 0.423642
vt 0.285652 0.423872
vt 0.286814 0.422989
vt 0.287893 0.422114
vt 0.288425 0.423021
vt 0.288839 0.421361
vt 0.289321 0.422479
vt 0.223032 0.653211
vt 0.220932 0.637443
vt 0.228047 0.634305
vt 0.232698 0.640782
vt 0.222480 0.628308
vt 0.227565 0.629549
vt 0.224951 0.623238
vt 0.228365 0.625349
vt 0.232532 0.626469
vt 0.231208 0.630734
vt 0.236622 0.626316
vt 0.236206 0.631939
vt 0.594506 0.466415
vt 0.599585 0.468511
vt 0.597026 0.472683
vt 0.593484 0.470223
vt 0.606534 0.474319
vt 0.599367 0.476592
vt 0.614549 0.486342
vt 0.600251 0.483904
vt 0.592355 0.479935
vt 0.594899 0.475663
vt 0.588331 0.476271
vt 0.591262 0.473714
vt 0.432213 0.917503
vt 0.469924 0.801856
vt 0.591387 0.801856
vt 0.629098 0.917503
vt 0.530655 0.988955
vn -0.2767 -0.4477 -0.8503
vn 0.8944 0.4472 0.0000
vn -0.7239 0.4465 0.5259
vn -0.2764 -0.4472 0.8507
vn 0.7231 -0.4477 0.5259
vn -0.0006 -1.0000 0.0004
vn -0.8943 -0.4474 0.0007
vn -0.7239 0.4469 -0.5256
vn 0.2764 0.4472 -0.8507
vn -0.0004 1.0000 0.0003
vn 0.2762 0.4469 0.8509
vn 0.5410 -0.6139 -0.5749
vn 0.4024 -0.8503 -0.3391
vn 0.0762 -0.9685 -0.2372
vn -0.1273 -0.8500 -0.5111
vn -0.1005 -0.6142 -0.7828
vn 0.2559 -0.5577 -0.7896
vn 0.1868 -0.7948 -0.5774
vn 0.7139 -0.6139 -0.3369
vn 0.8300 -0.5577 0.0007
vn 0.7134 -0.6142 0.3375
vn 0.4468 -0.8500 0.2790
vn 0.2492 -0.9685 0.0008
vn 0.4468 -0.8504 -0.2779
vn 0.6068 -0.7949 0.0008
vn 0.9778 0.2093 -0.0001
vn 0.9602 -0.0203 0.2785
vn 0.8678 -0.3650 0.3373
vn 0.8695 -0.4940 -0.0001
vn 0.8681 -0.3646 -0.3368
vn 0.9603 -0.0206 -0.2783
vn 0.9821 -0.1885 -0.0001
vn 0.9005 0.3640 0.2379
vn 0.7035 0.4930 0.5120
vn 0.5042 0.3634 0.7834
vn 0.6128 0.0195 0.7900
vn 0.7905 -0.2103 0.5753
vn 0.9403 0.0193 0.3397
vn 0.7943 0.1872 0.5780
vn -0.7756 -0.6138 0.1473
vn -0.5254 -0.8500 0.0380
vn -0.2020 -0.9683 0.1467
vn -0.1981 -0.8502 0.4877
vn -0.3794 -0.6138 0.6923
vn -0.6718 -0.5573 0.4880
vn -0.4912 -0.7946 0.3568
vn 0.0769 -0.9682 0.2380
vn 0.4026 -0.8500 0.3396
vn 0.5413 -0.6137 0.5747
vn 0.2569 -0.5574 0.7895
vn -0.1000 -0.6138 0.7831
vn -0.1266 -0.8501 0.5112
vn 0.1876 -0.7947 0.5773
vn 0.5886 -0.3642 0.7218
vn 0.5612 -0.0200 0.8274
vn 0.3022 0.2097 0.9299
vn 0.0322 -0.0195 0.9993
vn -0.0523 -0.3640 0.9299
vn 0.2688 -0.4934 0.8272
vn 0.3036 -0.1876 0.9341
vn 0.0524 0.3641 0.9299
vn -0.2689 0.4930 0.8274
vn -0.5889 0.3636 0.7218
vn -0.5616 0.0197 0.8272
vn -0.3022 -0.2096 0.9299
vn -0.0318 0.0201 0.9993
vn -0.3035 0.1877 0.9342
vn -0.9004 -0.3642 0.2380
vn -0.7037 -0.4934 0.5112
vn -0.5043 -0.3640 0.7831
vn -0.6134 -0.0195 0.7896
vn -0.7911 0.2097 0.5747
vn -0.9404 -0.0200 0.3396
vn -0.7947 -0.1876 0.5773
vn -0.3794 -0.6140 -0.6921
vn -0.1984 -0.8504 -0.4873
vn -0.2025 -0.9683 -0.1463
vn -0.5253 -0.8501 -0.0369
vn -0.7759 -0.6138 -0.1458
vn -0.6720 -0.5575 -0.4875
vn -0.4912 -0.7950 -0.3560
vn -0.8684 0.3640 -0.3368
vn -0.9604 0.0194 -0.2779
vn -0.9776 -0.2103 0.0008
vn -0.9601 0.0194 0.2790
vn -0.8684 0.3634 0.3375
vn -0.8701 0.4930 0.0007
vn -0.9823 0.1873 0.0008
vn -0.5046 -0.3642 -0.7828
vn -0.7036 -0.4934 -0.5113
vn -0.9006 -0.3640 -0.2376
vn -0.9404 -0.0195 -0.3394
vn -0.7910 0.2097 -0.5748
vn -0.6135 -0.0200 -0.7894
vn -0.7946 -0.1876 -0.5774
vn 0.0520 0.3640 -0.9300
vn -0.0324 0.0194 -0.9993
vn -0.3028 -0.2103 -0.9296
vn -0.5620 0.0195 -0.8269
vn -0.5893 0.3634 -0.7216
vn -0.2695 0.4930 -0.8273
vn -0.3043 0.1873 -0.9340
vn 0.3023 0.2093 -0.9299
vn 0.5615 -0.0206 -0.8273
vn 0.5886 -0.3646 -0.7216
vn 0.2687 -0.4940 -0.8269
vn -0.0526 -0.3649 -0.9296
vn 0.0318 -0.0204 -0.9993
vn 0.3036 -0.1884 -0.9340
vn 0.9006 0.3642 -0.2374
vn 0.9406 0.0196 -0.3388
vn 0.7909 -0.2106 -0.5746
vn 0.6129 0.0196 -0.7899
vn 0.5040 0.3642 -0.7831
vn 0.7037 0.4934 -0.5112
vn 0.7946 0.1877 -0.5773
vn 0.7757 0.6137 0.1470
vn 0.5253 0.8501 0.0381
vn 0.2021 0.9682 0.1476
vn 0.1978 0.8496 0.4889
vn 0.3788 0.6130 0.6934
vn 0.6716 0.5570 0.4886
vn 0.4910 0.7945 0.3575
vn -0.0772 0.9682 0.2379
vn -0.4032 0.8497 0.3396
vn -0.5416 0.6130 0.5753
vn -0.2566 0.5568 0.7900
vn 0.0996 0.6134 0.7834
vn 0.1263 0.8497 0.5120
vn -0.1876 0.7942 0.5780
vn -0.2501 0.9682 -0.0001
vn -0.4479 0.8497 -0.2783
vn -0.7143 0.6134 -0.3368
vn -0.8307 0.5568 -0.0001
vn -0.7145 0.6130 0.3373
vn -0.4476 0.8497 0.2785
vn -0.6077 0.7941 -0.0001
vn 0.0999 0.6137 -0.7832
vn -0.2572 0.5570 -0.7897
vn -0.5424 0.6130 -0.5745
vn -0.4038 0.8496 -0.3392
vn -0.0779 0.9682 -0.2378
vn 0.1261 0.8500 -0.5114
vn -0.1882 0.7945 -0.5774
vn 0.7759 0.6136 -0.1468
vn 0.6718 0.5572 -0.4881
vn 0.3794 0.6135 -0.6926
vn 0.1977 0.8500 -0.4882
vn 0.2013 0.9685 -0.1463
vn 0.5254 0.8500 -0.0372
vn 0.4912 0.7946 -0.3569
vn 0.6205 -0.6417 -0.4508
vn 0.4249 -0.8509 -0.3087
vn 0.1860 -0.9732 -0.1351
vn 0.9538 0.2680 0.1357
vn 0.9510 -0.0005 0.3093
vn 0.8509 -0.2689 0.4512
vn -0.8382 -0.4990 0.2199
vn -0.6882 -0.5257 0.5000
vn -0.4679 -0.4989 0.7295
vn -0.0714 -0.9730 0.2196
vn -0.1624 -0.8507 0.4999
vn -0.2370 -0.6417 0.7295
vn 0.5492 -0.4989 0.6704
vn 0.2630 -0.5257 0.8090
vn -0.0502 -0.4989 0.8652
vn 0.1658 0.2683 0.9489
vn 0.0002 0.0003 1.0000
vn -0.1656 -0.2680 0.9491
vn -0.6919 0.2680 0.6704
vn -0.5879 0.0001 0.8090
vn -0.4238 -0.2680 0.8652
vn -0.4681 -0.4990 -0.7293
vn -0.6884 -0.5257 -0.4998
vn -0.8385 -0.4989 -0.2191
vn -0.8513 0.2682 -0.4509
vn -0.9511 -0.0001 -0.3090
vn -0.9537 -0.2685 -0.1354
vn 0.1656 0.2680 -0.9491
vn -0.0003 -0.0005 -1.0000
vn -0.1662 -0.2689 -0.9487
vn -0.1868 0.9730 0.1357
vn -0.4257 0.8503 0.3093
vn -0.6211 0.6408 0.4512
vn -0.7671 -0.6416 0.0008
vn -0.5257 -0.8506 0.0006
vn -0.2310 -0.9730 0.0003
vn -0.2372 -0.6419 -0.7292
vn -0.1629 -0.8508 -0.4996
vn -0.0721 -0.9730 -0.2191
vn 0.6203 -0.6417 0.4510
vn 0.4250 -0.8506 0.3095
vn 0.1862 -0.9730 0.1363
vn 0.8073 -0.4992 -0.3149
vn 0.8503 -0.5262 0.0003
vn 0.8068 -0.4996 0.3154
vn 0.4237 0.2678 0.8653
vn 0.5874 -0.0003 0.8093
vn 0.6913 -0.2686 0.6708
vn -0.8514 0.2678 0.4510
vn -0.9509 -0.0003 0.3095
vn -0.9536 -0.2686 0.1363
vn 0.5489 -0.4992 -0.6705
vn 0.2625 -0.5262 -0.8088
vn -0.0506 -0.4996 -0.8648
vn -0.6920 0.2678 -0.6704
vn -0.5882 -0.0003 -0.8087
vn -0.4243 -0.2686 -0.8648
vn 0.9538 0.2680 -0.1355
vn 0.9512 -0.0005 -0.3087
vn 0.8514 -0.2690 -0.4504
vn 0.4236 0.2679 -0.8653
vn 0.5875 -0.0005 -0.8092
vn 0.6914 -0.2690 -0.6705
vn -0.5494 0.4982 0.6708
vn -0.2629 0.5252 0.8093
vn 0.0501 0.4987 0.8653
vn 0.8384 0.4988 0.2198
vn 0.6881 0.5252 0.5006
vn 0.4677 0.4981 0.7302
vn 0.0713 0.9729 0.2201
vn 0.1621 0.8503 0.5008
vn 0.2364 0.6410 0.7302
vn -0.8075 0.4988 -0.3148
vn -0.8510 0.5252 0.0003
vn -0.8077 0.4982 0.3154
vn 0.0501 0.4988 -0.8653
vn -0.2635 0.5252 -0.8091
vn -0.5499 0.4981 -0.6704
vn -0.1873 0.9729 -0.1358
vn -0.4262 0.8503 -0.3089
vn -0.6214 0.6410 -0.4505
vn 0.8384 0.4989 -0.2194
vn 0.6882 0.5257 -0.5000
vn 0.4678 0.4989 -0.7296
vn 0.0704 0.9731 -0.2195
vn 0.1619 0.8507 -0.5002
vn 0.2368 0.6414 -0.7297
vn 0.2305 0.9731 0.0008
vn 0.5257 0.8507 0.0006
vn 0.7671 0.6415 0.0002
vn 0.7234 -0.4476 -0.5256
usemtl None
s off
f 3/1/1 109/2/1 133/3/1 146/4/1 159/5/1
f 37/6/2 25/7/2 169/8/2 229/9/2 181/10/2
f 123/11/3 99/12/3 86/13/3 194/14/3 207/15/3
f 51/16/4 63/17/4 75/18/4 87/19/4 98/20/4
f 14/21/5 26/22/5 39/23/5 73/24/5 62/25/5
f 50/26/6 110/27/6 2/28/6 15/29/6 61/30/6
f 111/31/7 49/32/7 97/33/7 122/34/7 134/35/7
f 147/36/8 135/37/8 121/38/8 206/39/8 218/40/8
f 171/41/9 157/42/9 145/43/9 217/44/9 230/45/9
f 193/46/10 182/47/10 231/48/10 219/49/10 205/50/10
f 85/51/11 74/52/11 38/53/11 183/54/11 195/55/11
f 1/56/12 4/57/12 6/58/12 5/59/12
f 4/57/13 8/60/13 9/61/13 6/58/13
f 2/62/14 7/63/14 9/61/14 8/60/14
f 7/63/15 11/64/15 12/65/15 9/61/15
f 3/66/16 10/67/16 12/65/16 11/64/16
f 10/67/17 5/59/17 6/58/17 12/65/17
f 6/58/18 9/61/18 12/65/18
f 13/68/19 16/69/19 18/70/19 17/71/19
f 16/69/20 20/72/20 21/73/20 18/70/20
f 14/74/21 19/75/21 21/73/21 20/72/21
f 19/75/22 23/76/22 24/77/22 21/73/22
f 15/78/23 22/79/23 24/77/23 23/76/23
f 22/79/24 17/71/24 18/70/24 24/77/24
f 18/70/25 21/73/25 24/77/25
f 25/80/26 28/81/26 30/82/26 29/83/26
f 28/81/27 32/84/27 33/85/27 30/82/27
f 26/86/28 31/87/28 33/85/28 32/84/28
f 31/87/29 35/88/29 36/89/29 33/85/29
f 27/90/30 34/91/30 36/89/30 35/88/30
f 34/91/31 29/83/31 30/82/31 36/89/31
f 30/82/32 33/85/32 36/89/32
f 37/92/33 40/93/33 42/94/33 41/95/33
f 40/93/34 44/96/34 45/97/34 42/94/34
f 38/98/35 43/99/35 45/97/35 44/96/35
f 43/99/36 47/100/36 48/101/36 45/97/36
f 39/102/37 46/103/37 48/101/37 47/100/37
f 46/103/38 41/95/38 42/94/38 48/101/38
f 42/94/39 45/97/39 48/101/39
f 49/104/40 52/105/40 54/106/40 53/107/40
f 52/105/41 56/108/41 57/109/41 54/106/41
f 50/110/42 55/111/42 57/109/42 56/108/42
f 55/111/43 59/112/43 60/113/43 57/109/43
f 51/114/44 58/115/44 60/113/44 59/112/44
f 58/115/45 53/107/45 54/106/45 60/113/45
f 54/106/46 57/109/46 60/113/46
f 61/116/47 64/117/47 66/118/47 65/119/47
f 64/117/48 68/120/48 69/121/48 66/118/48
f 62/122/49 67/123/49 69/121/49 68/120/49
f 67/123/50 71/124/50 72/125/50 69/121/50
f 63/126/51 70/127/51 72/125/51 71/124/51
f 70/127/52 65/119/52 66/118/52 72/125/52
f 66/118/53 69/121/53 72/125/53
f 73/128/54 76/129/54 78/130/54 77/131/54
f 76/129/55 80/132/55 81/133/55 78/130/55
f 74/134/56 79/135/56 81/133/56 80/132/56
f 79/135/57 83/136/57 84/137/57 81/133/57
f 75/138/58 82/139/58 84/137/58 83/136/58
f 82/139/59 77/131/59 78/130/59 84/137/59
f 78/130/60 81/133/60 84/137/60
f 85/140/61 88/141/61 90/142/61 89/143/61
f 88/141/62 92/144/62 93/145/62 90/142/62
f 86/146/63 91/147/63 93/145/63 92/144/63
f 91/147/64 95/148/64 96/149/64 93/145/64
f 87/150/65 94/151/65 96/149/65 95/148/65
f 94/151/66 89/143/66 90/142/66 96/149/66
f 90/142/67 93/145/67 96/149/67
f 97/152/68 100/153/68 102/154/68 101/155/68
f 100/153/69 104/156/69 105/157/69 102/154/69
f 98/158/70 103/159/70 105/157/70 104/156/70
f 103/159/71 107/160/71 108/161/71 105/157/71
f 99/162/72 106/163/72 108/161/72 107/160/72
f 106/163/73 101/155/73 102/154/73 108/161/73
f 102/154/74 105/157/74 108/161/74
f 109/164/75 112/165/75 114/166/75 113/167/75
f 112/165/76 116/168/76 117/169/76 114/166/76
f 110/170/77 115/171/77 117/169/77 116/168/77
f 115/171/78 119/172/78 120/173/78 117/169/78
f 111/174/79 118/175/79 120/173/79 119/172/79
f 118/175/80 113/167/80 114/166/80 120/173/80
f 114/166/81 117/169/81 120/173/81
f 121/176/82 124/177/82 126/178/82 125/179/82
f 124/177/83 128/180/83 129/181/83 126/178/83
f 122/182/84 127/183/84 129/181/84 128/180/84
f 127/183/85 131/184/85 132/185/85 129/181/85
f 123/186/86 130/187/86 132/185/86 131/184/86
f 130/187/87 125/179/87 126/178/87 132/185/87
f 126/178/88 129/181/88 132/185/88
f 133/188/89 136/189/89 138/190/89 137/191/89
f 136/189/90 140/192/90 141/193/90 138/190/90
f 134/194/91 139/195/91 141/193/91 140/192/91
f 139/195/92 143/196/92 144/197/92 141/193/92
f 135/198/93 142/199/93 144/197/93 143/196/93
f 142/199/94 137/191/94 138/190/94 144/197/94
f 138/190/95 141/193/95 144/197/95
f 145/200/96 148/201/96 150/202/96 149/203/96
f 148/201/97 152/204/97 153/205/97 150/202/97
f 146/206/98 151/207/98 153/205/98 152/204/98
f 151/207/99 155/208/99 156/209/99 153/205/99
f 147/210/100 154/211/100 156/209/100 155/208/100
f 154/211/101 149/203/101 150/202/101 156/209/101
f 150/202/102 153/205/102 156/209/102
f 157/212/103 160/213/103 162/214/103 161/215/103
f 160/213/104 164/216/104 165/217/104 162/214/104
f 158/218/105 163/219/105 165/217/105 164/216/105
f 163/219/106 167/220/106 168/221/106 165/217/106
f 159/222/107 166/223/107 168/221/107 167/220/107
f 166/223/108 161/215/108 162/214/108 168/221/108
f 162/214/109 165/217/109 168/221/109
f 169/224/110 172/225/110 174/226/110 173/227/110
f 172/225/111 176/228/111 177/229/111 174/226/111
f 170/230/112 175/231/112 177/229/112 176/228/112
f 175/231/113 179/232/113 180/233/113 177/229/113
f 171/234/114 178/235/114 180/233/114 179/232/114
f 178/235/115 173/227/115 174/226/115 180/233/115
f 174/226/116 177/229/116 180/233/116
f 181/236/117 184/237/117 186/238/117 185/239/117
f 184/237/118 188/240/118 189/241/118 186/238/118
f 182/242/119 187/243/119 189/241/119 188/240/119
f 187/243/120 191/244/120 192/245/120 189/241/120
f 183/246/121 190/247/121 192/245/121 191/244/121
f 190/247/122 185/239/122 186/238/122 192/245/122
f 186/238/123 189/241/123 192/245/123
f 193/248/124 196/249/124 198/250/124 197/251/124
f 196/249/125 200/252/125 201/253/125 198/250/125
f 194/254/126 199/255/126 201/253/126 200/252/126
f 199/255/127 203/256/127 204/257/127 201/253/127
f 195/258/128 202/259/128 204/257/128 203/256/128
f 202/259/129 197/251/129 198/250/129 204/257/129
f 198/250/130 201/253/130 204/257/130
f 205/260/131 208/261/131 210/262/131 209/263/131
f 208/261/132 212/264/132 213/265/132 210/262/132
f 206/266/133 211/267/133 213/265/133 212/264/133
f 211/267/134 215/268/134 216/269/134 213/265/134
f 207/270/135 214/271/135 216/269/135 215/268/135
f 214/271/136 209/263/136 210/262/136 216/269/136
f 210/262/137 213/265/137 216/269/137
f 217/272/138 220/273/138 222/274/138 221/275/138
f 220/273/139 224/276/139 225/277/139 222/274/139
f 218/278/140 223/279/140 225/277/140 224/276/140
f 223/279/141 227/280/141 228/281/141 225/277/141
f 219/282/142 226/283/142 228/281/142 227/280/142
f 226/283/143 221/275/143 222/274/143 228/281/143
f 222/274/144 225/277/144 228/281/144
f 229/284/145 232/285/145 234/286/145 233/287/145
f 232/285/146 236/288/146 237/289/146 234/286/146
f 230/290/147 235/291/147 237/289/147 236/288/147
f 235/291/148 239/292/148 240/293/148 237/289/148
f 231/294/149 238/295/149 240/293/149 239/292/149
f 238/295/150 233/287/150 234/286/150 240/293/150
f 234/286/151 237/289/151 240/293/151
f 1/56/152 13/68/152 17/71/152 4/57/152
f 4/57/153 17/71/153 22/79/153 8/60/153
f 8/60/154 22/79/154 15/78/154 2/62/154
f 25/80/155 37/92/155 41/95/155 28/81/155
f 28/81/156 41/95/156 46/103/156 32/84/156
f 32/84/157 46/103/157 39/102/157 26/86/157
f 97/152/158 49/104/158 53/107/158 100/153/158
f 100/153/159 53/107/159 58/115/159 104/156/159
f 104/156/160 58/115/160 51/114/160 98/158/160
f 50/110/161 61/116/161 65/119/161 55/111/161
f 55/111/162 65/119/162 70/127/162 59/112/162
f 59/112/163 70/127/163 63/126/163 51/114/163
f 62/122/164 73/128/164 77/131/164 67/123/164
f 67/123/165 77/131/165 82/139/165 71/124/165
f 71/124/166 82/139/166 75/138/166 63/126/166
f 74/134/167 85/140/167 89/143/167 79/135/167
f 79/135/168 89/143/168 94/151/168 83/136/168
f 83/136/169 94/151/169 87/150/169 75/138/169
f 86/146/170 99/162/170 107/160/170 91/147/170
f 91/147/171 107/160/171 103/159/171 95/148/171
f 95/148/172 103/159/172 98/158/172 87/150/172
f 133/188/173 109/164/173 113/167/173 136/189/173
f 136/189/174 113/167/174 118/175/174 140/192/174
f 140/192/175 118/175/175 111/174/175 134/194/175
f 121/176/176 135/198/176 143/196/176 124/177/176
f 124/177/177 143/196/177 139/195/177 128/180/177
f 128/180/178 139/195/178 134/194/178 122/182/178
f 145/200/179 157/212/179 161/215/179 148/201/179
f 148/201/180 161/215/180 166/223/180 152/204/180
f 152/204/181 166/223/181 159/222/181 146/206/181
f 193/248/182 205/260/182 209/263/182 196/249/182
f 196/249/183 209/263/183 214/271/183 200/252/183
f 200/252/184 214/271/184 207/270/184 194/254/184
f 49/104/185 111/174/185 119/172/185 52/105/185
f 52/105/186 119/172/186 115/171/186 56/108/186
f 56/108/187 115/171/187 110/170/187 50/110/187
f 109/164/188 3/66/188 11/64/188 112/165/188
f 112/165/189 11/64/189 7/63/189 116/168/189
f 116/168/190 7/63/190 2/62/190 110/170/190
f 14/74/191 62/122/191 68/120/191 19/75/191
f 19/75/192 68/120/192 64/117/192 23/76/192
f 23/76/193 64/117/193 61/116/193 15/78/193
f 13/68/194 27/90/194 35/88/194 16/69/194
f 16/69/195 35/88/195 31/87/195 20/72/195
f 20/72/196 31/87/196 26/86/196 14/74/196
f 38/98/197 74/134/197 80/132/197 43/99/197
f 43/99/198 80/132/198 76/129/198 47/100/198
f 47/100/199 76/129/199 73/128/199 39/102/199
f 99/162/200 123/186/200 131/184/200 106/163/200
f 106/163/201 131/184/201 127/183/201 101/155/201
f 101/155/202 127/183/202 122/182/202 97/152/202
f 158/218/203 1/56/203 5/59/203 163/219/203
f 163/219/204 5/59/204 10/67/204 167/220/204
f 167/220/205 10/67/205 3/66/205 159/222/205
f 135/198/206 147/210/206 155/208/206 142/199/206
f 142/199/207 155/208/207 151/207/207 137/191/207
f 137/191/208 151/207/208 146/206/208 133/188/208
f 169/224/209 25/80/209 29/83/209 172/225/209
f 172/225/210 29/83/210 34/91/210 176/228/210
f 176/228/211 34/91/211 27/90/211 170/230/211
f 157/212/212 171/234/212 179/232/212 160/213/212
f 160/213/213 179/232/213 175/231/213 164/216/213
f 164/216/214 175/231/214 170/230/214 158/218/214
f 194/254/215 86/146/215 92/144/215 199/255/215
f 199/255/216 92/144/216 88/141/216 203/256/216
f 203/256/217 88/141/217 85/140/217 195/258/217
f 37/92/218 181/236/218 185/239/218 40/93/218
f 40/93/219 185/239/219 190/247/219 44/96/219
f 44/96/220 190/247/220 183/246/220 38/98/220
f 182/242/221 193/248/221 197/251/221 187/243/221
f 187/243/222 197/251/222 202/259/222 191/244/222
f 191/244/223 202/259/223 195/258/223 183/246/223
f 206/266/224 121/176/224 125/179/224 211/267/224
f 211/267/225 125/179/225 130/187/225 215/268/225
f 215/268/226 130/187/226 123/186/226 207/270/226
f 217/272/227 145/200/227 149/203/227 220/273/227
f 220/273/228 149/203/228 154/211/228 224/276/228
f 224/276/229 154/211/229 147/210/229 218/278/229
f 205/260/230 219/282/230 227/280/230 208/261/230
f 208/261/231 227/280/231 223/279/231 212/264/231
f 212/264/232 223/279/232 218/278/232 206/266/232
f 229/284/233 169/224/233 173/227/233 232/285/233
f 232/285/234 173/227/234 178/235/234 236/288/234
f 236/288/235 178/235/235 171/234/235 230/290/235
f 219/282/236 231/294/236 239/292/236 226/283/236
f 226/283/237 239/292/237 235/291/237 221/275/237
f 221/275/238 235/291/238 230/290/238 217/272/238
f 231/294/239 182/242/239 188/240/239 238/295/239
f 238/295/240 188/240/240 184/237/240 233/287/240
f 233/287/241 184/237/241 181/236/241 229/284/241
f 27/296/242 13/297/242 1/298/242 158/299/242 170/300/242
