%YAML 1.1
%TAG !u! tag:unity3d.com,2011:
--- !u!1045 &1
EditorBuildSettings:
  m_ObjectHideFlags: 0
  serializedVersion: 2
  m_Scenes:
  - enabled: 1
    path: Assets/Screen.unity
    guid: 00000000000000000000000000000000
  - enabled: 0
    path: Assets/Match Maker/Examples/Scenes/Game (open-ended).unity
    guid: 00000000000000000000000000000000
  - enabled: 0
    path: Assets/Match Maker/Examples/Scenes/Lobby (open-ended).unity
    guid: 00000000000000000000000000000000
  - enabled: 0
    path: Assets/Match Maker/Examples/Scenes/Lobby (match).unity
    guid: 00000000000000000000000000000000
  - enabled: 0
    path: Assets/Match Maker/Examples/Scenes/Game (match).unity
    guid: 00000000000000000000000000000000
  - enabled: 0
    path: Assets/ServerClient_Setup/Scenes/MainMenu.unity
    guid: 00000000000000000000000000000000
  - enabled: 0
    path: Assets/ServerClient_Setup/Scenes/Lobby_Game.unity
    guid: 00000000000000000000000000000000
  - enabled: 0
    path: Assets/ServerClient_Setup/Scenes/ServerClientMenu.unity
    guid: 00000000000000000000000000000000
