# Blender v2.79 (sub 0) OBJ File: 'kostkaD8.blend'
# www.blender.org
mtllib kostkaD8.mtl
o GD_mesh.001
v 0.052000 0.896000 -0.052000
v -0.052000 0.896000 -0.052000
v -0.052000 0.896000 0.052000
v 0.052000 0.896000 0.052000
v 0.028142 0.903971 -0.059971
v -0.000000 0.906770 -0.062770
v 0.059971 0.903971 -0.028142
v 0.029590 0.922680 -0.029590
v 0.000000 0.932430 -0.031385
v -0.000000 0.945260 0.000000
v -0.059971 0.903971 -0.028142
v -0.062770 0.906770 0.000000
v -0.028142 0.903971 -0.059971
v -0.029590 0.922680 -0.029590
v -0.031385 0.932430 -0.000000
v -0.028142 0.903971 0.059971
v 0.000000 0.906770 0.062770
v -0.059971 0.903971 0.028142
v -0.029590 0.922680 0.029590
v -0.000000 0.932430 0.031385
v 0.059971 0.903971 0.028142
v 0.062770 0.906770 0.000000
v 0.028142 0.903971 0.059971
v 0.029590 0.922680 0.029590
v 0.031385 0.932430 0.000000
v 0.052000 0.052000 -0.896000
v 0.052000 -0.052000 -0.896000
v -0.052000 -0.052000 -0.896000
v -0.052000 0.052000 -0.896000
v 0.059971 0.028142 -0.903971
v 0.062770 -0.000000 -0.906770
v 0.028142 0.059971 -0.903971
v 0.029590 0.029590 -0.922680
v 0.031385 0.000000 -0.932430
v 0.000000 -0.000000 -0.945260
v 0.028142 -0.059971 -0.903971
v -0.000000 -0.062770 -0.906770
v 0.059971 -0.028142 -0.903971
v 0.029590 -0.029590 -0.922680
v 0.000000 -0.031385 -0.932430
v -0.059971 -0.028142 -0.903971
v -0.062770 -0.000000 -0.906770
v -0.028142 -0.059971 -0.903971
v -0.029590 -0.029590 -0.922680
v -0.031385 0.000000 -0.932430
v -0.028142 0.059971 -0.903971
v -0.000000 0.062770 -0.906770
v -0.059971 0.028142 -0.903971
v -0.029590 0.029590 -0.922680
v 0.000000 0.031385 -0.932430
v -0.896000 -0.052000 -0.052000
v -0.896000 -0.052000 0.052000
v -0.896000 0.052000 0.052000
v -0.896000 0.052000 -0.052000
v -0.903971 -0.059971 -0.028142
v -0.906770 -0.062770 0.000000
v -0.903971 -0.028142 -0.059971
v -0.922680 -0.029590 -0.029590
v -0.932430 -0.031385 0.000000
v -0.945260 -0.000000 0.000000
v -0.903971 -0.028142 0.059971
v -0.906770 -0.000000 0.062770
v -0.903971 -0.059971 0.028142
v -0.922680 -0.029590 0.029590
v -0.932430 0.000000 0.031385
v -0.903971 0.059971 0.028142
v -0.906770 0.062770 0.000000
v -0.903971 0.028142 0.059971
v -0.922680 0.029590 0.029590
v -0.932430 0.031385 0.000000
v -0.903971 0.028142 -0.059971
v -0.906770 -0.000000 -0.062770
v -0.903971 0.059971 -0.028142
v -0.922680 0.029590 -0.029590
v -0.932430 0.000000 -0.031385
v 0.052000 -0.052000 0.896000
v 0.052000 0.052000 0.896000
v -0.052000 0.052000 0.896000
v -0.052000 -0.052000 0.896000
v 0.059971 -0.028142 0.903971
v 0.062770 -0.000000 0.906770
v 0.028142 -0.059971 0.903971
v 0.029590 -0.029590 0.922680
v 0.031385 0.000000 0.932430
v 0.000000 0.000000 0.945260
v 0.028142 0.059971 0.903971
v 0.000000 0.062770 0.906770
v 0.059971 0.028142 0.903971
v 0.029590 0.029590 0.922680
v 0.000000 0.031385 0.932430
v -0.059971 0.028142 0.903971
v -0.062770 -0.000000 0.906770
v -0.028142 0.059971 0.903971
v -0.029590 0.029590 0.922680
v -0.031385 0.000000 0.932430
v -0.028142 -0.059971 0.903971
v 0.000000 -0.062770 0.906770
v -0.059971 -0.028142 0.903971
v -0.029590 -0.029590 0.922680
v 0.000000 -0.031385 0.932430
v 0.896000 0.052000 -0.052000
v 0.896000 0.052000 0.052000
v 0.896000 -0.052000 0.052000
v 0.896000 -0.052000 -0.052000
v 0.903971 0.059971 -0.028142
v 0.906770 0.062770 0.000000
v 0.903971 0.028142 -0.059971
v 0.922680 0.029590 -0.029590
v 0.932430 0.031385 0.000000
v 0.945260 0.000000 0.000000
v 0.903971 0.028142 0.059971
v 0.906770 -0.000000 0.062770
v 0.903971 0.059971 0.028142
v 0.922680 0.029590 0.029590
v 0.932430 0.000000 0.031385
v 0.903971 -0.059971 0.028142
v 0.906770 -0.062770 0.000000
v 0.903971 -0.028142 0.059971
v 0.922680 -0.029590 0.029590
v 0.932430 -0.031385 0.000000
v 0.903971 -0.028142 -0.059971
v 0.906770 -0.000000 -0.062770
v 0.903971 -0.059971 -0.028142
v 0.922680 -0.029590 -0.029590
v 0.932430 0.000000 -0.031385
v 0.052000 -0.896000 0.052000
v -0.052000 -0.896000 0.052000
v -0.052000 -0.896000 -0.052000
v 0.052000 -0.896000 -0.052000
v 0.028142 -0.903971 0.059971
v 0.000000 -0.906770 0.062770
v 0.059971 -0.903971 0.028142
v 0.029590 -0.922680 0.029590
v 0.000000 -0.932430 0.031385
v -0.000000 -0.945260 -0.000000
v -0.059971 -0.903971 0.028142
v -0.062770 -0.906770 0.000000
v -0.028142 -0.903971 0.059971
v -0.029590 -0.922680 0.029590
v -0.031385 -0.932430 0.000000
v -0.028142 -0.903971 -0.059971
v -0.000000 -0.906770 -0.062770
v -0.059971 -0.903971 -0.028142
v -0.029590 -0.922680 -0.029590
v -0.000000 -0.932430 -0.031385
v 0.059971 -0.903971 -0.028142
v 0.062770 -0.906770 -0.000000
v 0.028142 -0.903971 -0.059971
v 0.029590 -0.922680 -0.029590
v 0.031385 -0.932430 -0.000000
vt 0.719809 0.497403
vt 0.524831 0.384832
vt 0.719809 0.272262
vt 0.027034 0.124067
vt 0.222012 0.011497
vt 0.222012 0.236638
vt 0.469105 0.124934
vt 0.274128 0.237504
vt 0.274128 0.012363
vt 0.030831 0.385465
vt 0.225809 0.272894
vt 0.225809 0.498035
vt 0.278494 0.527244
vt 0.473471 0.639814
vt 0.278494 0.752385
vt 0.222012 0.746270
vt 0.027034 0.633699
vt 0.222012 0.521129
vt 0.276807 0.281150
vt 0.471785 0.393721
vt 0.276807 0.506291
vt 0.740033 0.828427
vt 0.739676 0.830415
vt 0.737528 0.829399
vt 0.738712 0.827543
vt 0.738854 0.832712
vt 0.736333 0.830970
vt 0.736060 0.828406
vt 0.737389 0.826656
vt 0.734913 0.829656
vt 0.734924 0.837590
vt 0.732505 0.835062
vt 0.734921 0.832784
vt 0.737346 0.835046
vt 0.730986 0.832728
vt 0.733500 0.830977
vt 0.729789 0.828455
vt 0.731103 0.827568
vt 0.732297 0.829414
vt 0.730155 0.830443
vt 0.732424 0.826671
vt 0.733759 0.828413
vt 0.734897 0.825116
vt 0.736094 0.825812
vt 0.734905 0.827264
vt 0.733706 0.825823
vt 0.868393 0.859109
vt 0.870569 0.857295
vt 0.872650 0.861095
vt 0.868354 0.862019
vt 0.873153 0.855200
vt 0.876386 0.859396
vt 0.873968 0.865052
vt 0.868431 0.865498
vt 0.878598 0.863584
vt 0.877556 0.850295
vt 0.882478 0.849691
vt 0.879867 0.856077
vt 0.875524 0.852775
vt 0.890637 0.850774
vt 0.884232 0.860344
vt 0.920264 0.869955
vt 0.899879 0.892154
vt 0.890608 0.867812
vt 0.901819 0.855371
vt 0.879029 0.884753
vt 0.880715 0.870108
vt 0.867500 0.872473
vt 0.868133 0.869094
vt 0.874015 0.870217
vt 0.870566 0.877594
vt 0.550189 0.869521
vt 0.568584 0.855328
vt 0.579587 0.867682
vt 0.570101 0.892154
vt 0.579619 0.850816
vt 0.585937 0.860262
vt 0.589429 0.869976
vt 0.591099 0.884648
vt 0.591536 0.863477
vt 0.592536 0.850256
vt 0.594568 0.852719
vt 0.590263 0.856017
vt 0.587644 0.849695
vt 0.596940 0.855134
vt 0.593731 0.859308
vt 0.601679 0.858994
vt 0.601729 0.861888
vt 0.597449 0.860987
vt 0.599503 0.857196
vt 0.601663 0.865375
vt 0.596144 0.864933
vt 0.602597 0.872304
vt 0.599566 0.877423
vt 0.596106 0.870076
vt 0.601963 0.868945
vt 0.704283 0.766437
vt 0.704413 0.767991
vt 0.702279 0.768117
vt 0.702428 0.765831
vt 0.704536 0.769557
vt 0.702408 0.769833
vt 0.700401 0.768366
vt 0.700158 0.765474
vt 0.700796 0.770182
vt 0.704643 0.772439
vt 0.703440 0.773113
vt 0.702806 0.771371
vt 0.704628 0.771068
vt 0.702057 0.773789
vt 0.701262 0.771771
vt 0.699154 0.775108
vt 0.697713 0.773719
vt 0.699682 0.772488
vt 0.700611 0.774452
vt 0.696315 0.771842
vt 0.699005 0.770696
vt 0.694494 0.766342
vt 0.697572 0.765626
vt 0.698243 0.768650
vt 0.695260 0.769454
vt 0.770190 0.774771
vt 0.768731 0.774122
vt 0.769648 0.772150
vt 0.771628 0.773370
vt 0.767277 0.773465
vt 0.768060 0.771443
vt 0.770314 0.770351
vt 0.773014 0.771485
vt 0.768515 0.769849
vt 0.764684 0.772139
vt 0.764686 0.770769
vt 0.766513 0.771056
vt 0.765895 0.772803
vt 0.764765 0.769249
vt 0.766899 0.769511
vt 0.764997 0.766130
vt 0.766843 0.765507
vt 0.767014 0.767793
vt 0.764877 0.767687
vt 0.769120 0.765126
vt 0.768898 0.768027
vt 0.774812 0.765957
vt 0.774063 0.769078
vt 0.771062 0.768294
vt 0.771708 0.765258
vt 0.734265 0.649196
vt 0.731854 0.648084
vt 0.734240 0.644855
vt 0.736667 0.648055
vt 0.729033 0.646700
vt 0.731411 0.642326
vt 0.737038 0.642294
vt 0.739457 0.646646
vt 0.734203 0.638950
vt 0.723057 0.644815
vt 0.720473 0.640602
vt 0.727242 0.640514
vt 0.726015 0.645596
vt 0.718202 0.632421
vt 0.729474 0.635147
vt 0.733698 0.581323
vt 0.749391 0.618569
vt 0.734126 0.627336
vt 0.718771 0.618845
vt 0.750133 0.632213
vt 0.738887 0.635086
vt 0.745438 0.644693
vt 0.742479 0.645507
vt 0.741191 0.640430
vt 0.747982 0.640429
vt 0.862140 0.081250
vt 0.636999 0.081250
vt 0.636999 0.076273
vt 0.862140 0.076273
vt 0.972222 0.389127
vt 0.777244 0.501698
vt 0.777244 0.276557
vn 0.6770 -0.5204 -0.5204
vn 0.5204 -0.6770 -0.5204
vn 0.5204 -0.5204 -0.6770
vn -0.5204 0.6770 -0.5204
vn -0.5204 0.5204 -0.6770
vn -0.6770 0.5204 -0.5204
vn -0.5204 0.6770 0.5204
vn -0.6770 0.5204 0.5204
vn -0.5204 0.5204 0.6770
vn 0.5204 0.6770 0.5204
vn 0.5204 0.5204 0.6770
vn 0.6770 0.5204 0.5204
vn -0.6770 -0.5204 0.5204
vn -0.5204 -0.6770 0.5204
vn -0.5204 -0.5204 0.6770
vn 0.5204 -0.5204 0.6770
vn 0.5204 -0.6770 0.5204
vn 0.6770 -0.5204 0.5204
vn -0.5204 -0.5204 -0.6770
vn -0.5204 -0.6770 -0.5204
vn -0.6770 -0.5204 -0.5204
vn 0.5204 0.6770 -0.5204
vn 0.3101 0.7345 -0.6036
vn 0.4010 0.8236 -0.4010
vn 0.6036 0.7345 -0.3101
vn 0.0000 0.7602 -0.6497
vn 0.0000 0.8829 -0.4695
vn 0.4695 0.8829 0.0000
vn 0.6497 0.7602 0.0000
vn 0.0000 1.0000 0.0000
vn -0.6036 0.7345 -0.3101
vn -0.4010 0.8236 -0.4010
vn -0.3101 0.7345 -0.6036
vn -0.6497 0.7602 0.0000
vn -0.4695 0.8829 0.0000
vn -0.3101 0.7345 0.6036
vn -0.4010 0.8236 0.4010
vn -0.6036 0.7345 0.3101
vn 0.0000 0.7602 0.6497
vn 0.0000 0.8829 0.4695
vn 0.6036 0.7345 0.3101
vn 0.4010 0.8236 0.4010
vn 0.3101 0.7345 0.6036
vn 0.5204 0.5204 -0.6770
vn 0.6036 0.3101 -0.7345
vn 0.4010 0.4010 -0.8236
vn 0.3101 0.6036 -0.7345
vn 0.6497 0.0000 -0.7602
vn 0.4695 0.0000 -0.8829
vn 0.0000 0.4695 -0.8829
vn 0.0000 0.6497 -0.7602
vn 0.0000 0.0000 -1.0000
vn 0.3101 -0.6036 -0.7345
vn 0.4010 -0.4010 -0.8236
vn 0.6036 -0.3101 -0.7345
vn 0.0000 -0.6497 -0.7602
vn 0.0000 -0.4695 -0.8829
vn -0.6036 -0.3101 -0.7345
vn -0.4010 -0.4010 -0.8236
vn -0.3101 -0.6036 -0.7345
vn -0.6497 0.0000 -0.7602
vn -0.4695 0.0000 -0.8829
vn -0.3101 0.6036 -0.7345
vn -0.4010 0.4010 -0.8236
vn -0.6036 0.3101 -0.7345
vn -0.7345 -0.6036 -0.3101
vn -0.8236 -0.4010 -0.4010
vn -0.7345 -0.3101 -0.6036
vn -0.7602 -0.6497 0.0000
vn -0.8829 -0.4695 0.0000
vn -0.8829 0.0000 -0.4695
vn -0.7602 0.0000 -0.6497
vn -1.0000 0.0000 0.0000
vn -0.7345 -0.3101 0.6036
vn -0.8236 -0.4010 0.4010
vn -0.7345 -0.6036 0.3101
vn -0.7602 0.0000 0.6497
vn -0.8829 0.0000 0.4695
vn -0.7345 0.6036 0.3101
vn -0.8236 0.4010 0.4010
vn -0.7345 0.3101 0.6036
vn -0.7602 0.6497 0.0000
vn -0.8829 0.4695 0.0000
vn -0.7345 0.3101 -0.6036
vn -0.8236 0.4010 -0.4010
vn -0.7345 0.6036 -0.3101
vn 0.6036 -0.3101 0.7345
vn 0.4010 -0.4010 0.8236
vn 0.3101 -0.6036 0.7345
vn 0.6497 0.0000 0.7602
vn 0.4695 0.0000 0.8829
vn 0.0000 -0.4695 0.8829
vn 0.0000 -0.6497 0.7602
vn 0.0000 0.0000 1.0000
vn 0.3101 0.6036 0.7345
vn 0.4010 0.4010 0.8236
vn 0.6036 0.3101 0.7345
vn 0.0000 0.6497 0.7602
vn 0.0000 0.4695 0.8829
vn -0.6036 0.3101 0.7345
vn -0.4010 0.4010 0.8236
vn -0.3101 0.6036 0.7345
vn -0.6497 0.0000 0.7602
vn -0.4695 0.0000 0.8829
vn -0.3101 -0.6036 0.7345
vn -0.4010 -0.4010 0.8236
vn -0.6036 -0.3101 0.7345
vn 0.6770 0.5204 -0.5204
vn 0.7345 0.6036 -0.3101
vn 0.8236 0.4010 -0.4010
vn 0.7345 0.3101 -0.6036
vn 0.7602 0.6497 0.0000
vn 0.8829 0.4695 0.0000
vn 0.8829 0.0000 -0.4695
vn 0.7602 0.0000 -0.6497
vn 1.0000 0.0000 0.0000
vn 0.7345 0.3101 0.6036
vn 0.8236 0.4010 0.4010
vn 0.7345 0.6036 0.3101
vn 0.7602 0.0000 0.6497
vn 0.8829 0.0000 0.4695
vn 0.7345 -0.6036 0.3101
vn 0.8236 -0.4010 0.4010
vn 0.7345 -0.3101 0.6036
vn 0.7602 -0.6497 0.0000
vn 0.8829 -0.4695 0.0000
vn 0.7345 -0.3101 -0.6036
vn 0.8236 -0.4010 -0.4010
vn 0.7345 -0.6036 -0.3101
vn 0.3101 -0.7345 0.6036
vn 0.4010 -0.8236 0.4010
vn 0.6036 -0.7345 0.3101
vn 0.0000 -0.7602 0.6497
vn 0.0000 -0.8829 0.4695
vn 0.4695 -0.8829 0.0000
vn 0.6497 -0.7602 0.0000
vn 0.0000 -1.0000 0.0000
vn -0.6036 -0.7345 0.3101
vn -0.4010 -0.8236 0.4010
vn -0.3101 -0.7345 0.6036
vn -0.6497 -0.7602 0.0000
vn -0.4695 -0.8829 0.0000
vn -0.3101 -0.7345 -0.6036
vn -0.4010 -0.8236 -0.4010
vn -0.6036 -0.7345 -0.3101
vn 0.0000 -0.7602 -0.6497
vn 0.0000 -0.8829 -0.4695
vn 0.6036 -0.7345 -0.3101
vn 0.4010 -0.8236 -0.4010
vn 0.3101 -0.7345 -0.6036
usemtl Material.001
s 1
f 104/1/1 129/2/2 27/3/3
f 2/4/4 29/5/5 54/6/6
f 3/7/7 53/8/8 78/9/9
f 4/10/10 77/11/11 102/12/12
f 52/13/13 127/14/14 79/15/15
f 76/16/16 126/17/17 103/18/18
f 28/19/19 128/20/20 51/21/21
f 1/22/22 5/23/23 8/24/24 7/25/25
f 5/23/23 6/26/26 9/27/27 8/24/24
f 7/25/25 8/24/24 25/28/28 22/29/29
f 8/24/24 9/27/27 10/30/30 25/28/28
f 2/31/4 11/32/31 14/33/32 13/34/33
f 11/32/31 12/35/34 15/36/35 14/33/32
f 13/34/33 14/33/32 9/27/27 6/26/26
f 14/33/32 15/36/35 10/30/30 9/27/27
f 3/37/7 16/38/36 19/39/37 18/40/38
f 16/38/36 17/41/39 20/42/40 19/39/37
f 18/40/38 19/39/37 15/36/35 12/35/34
f 19/39/37 20/42/40 10/30/30 15/36/35
f 4/43/10 21/44/41 24/45/42 23/46/43
f 21/44/41 22/29/29 25/28/28 24/45/42
f 23/46/43 24/45/42 20/42/40 17/41/39
f 24/45/42 25/28/28 10/30/30 20/42/40
f 26/47/44 30/48/45 33/49/46 32/50/47
f 30/48/45 31/51/48 34/52/49 33/49/46
f 32/50/47 33/49/46 50/53/50 47/54/51
f 33/49/46 34/52/49 35/55/52 50/53/50
f 27/56/3 36/57/53 39/58/54 38/59/55
f 36/57/53 37/60/56 40/61/57 39/58/54
f 38/59/55 39/58/54 34/52/49 31/51/48
f 39/58/54 40/61/57 35/55/52 34/52/49
f 28/62/19 41/63/58 44/64/59 43/65/60
f 41/63/58 42/66/61 45/67/62 44/64/59
f 43/65/60 44/64/59 40/61/57 37/60/56
f 44/64/59 45/67/62 35/55/52 40/61/57
f 29/68/5 46/69/63 49/70/64 48/71/65
f 46/69/63 47/54/51 50/53/50 49/70/64
f 48/71/65 49/70/64 45/67/62 42/66/61
f 49/70/64 50/53/50 35/55/52 45/67/62
f 51/72/21 55/73/66 58/74/67 57/75/68
f 55/73/66 56/76/69 59/77/70 58/74/67
f 57/75/68 58/74/67 75/78/71 72/79/72
f 58/74/67 59/77/70 60/80/73 75/78/71
f 52/81/13 61/82/74 64/83/75 63/84/76
f 61/82/74 62/85/77 65/86/78 64/83/75
f 63/84/76 64/83/75 59/77/70 56/76/69
f 64/83/75 65/86/78 60/80/73 59/77/70
f 53/87/8 66/88/79 69/89/80 68/90/81
f 66/88/79 67/91/82 70/92/83 69/89/80
f 68/90/81 69/89/80 65/86/78 62/85/77
f 69/89/80 70/92/83 60/80/73 65/86/78
f 54/93/6 71/94/84 74/95/85 73/96/86
f 71/94/84 72/79/72 75/78/71 74/95/85
f 73/96/86 74/95/85 70/92/83 67/91/82
f 74/95/85 75/78/71 60/80/73 70/92/83
f 76/97/16 80/98/87 83/99/88 82/100/89
f 80/98/87 81/101/90 84/102/91 83/99/88
f 82/100/89 83/99/88 100/103/92 97/104/93
f 83/99/88 84/102/91 85/105/94 100/103/92
f 77/106/11 86/107/95 89/108/96 88/109/97
f 86/107/95 87/110/98 90/111/99 89/108/96
f 88/109/97 89/108/96 84/102/91 81/101/90
f 89/108/96 90/111/99 85/105/94 84/102/91
f 78/112/9 91/113/100 94/114/101 93/115/102
f 91/113/100 92/116/103 95/117/104 94/114/101
f 93/115/102 94/114/101 90/111/99 87/110/98
f 94/114/101 95/117/104 85/105/94 90/111/99
f 79/118/15 96/119/105 99/120/106 98/121/107
f 96/119/105 97/104/93 100/103/92 99/120/106
f 98/121/107 99/120/106 95/117/104 92/116/103
f 99/120/106 100/103/92 85/105/94 95/117/104
f 101/122/108 105/123/109 108/124/110 107/125/111
f 105/123/109 106/126/112 109/127/113 108/124/110
f 107/125/111 108/124/110 125/128/114 122/129/115
f 108/124/110 109/127/113 110/130/116 125/128/114
f 102/131/12 111/132/117 114/133/118 113/134/119
f 111/132/117 112/135/120 115/136/121 114/133/118
f 113/134/119 114/133/118 109/127/113 106/126/112
f 114/133/118 115/136/121 110/130/116 109/127/113
f 103/137/18 116/138/122 119/139/123 118/140/124
f 116/138/122 117/141/125 120/142/126 119/139/123
f 118/140/124 119/139/123 115/136/121 112/135/120
f 119/139/123 120/142/126 110/130/116 115/136/121
f 104/143/1 121/144/127 124/145/128 123/146/129
f 121/144/127 122/129/115 125/128/114 124/145/128
f 123/146/129 124/145/128 120/142/126 117/141/125
f 124/145/128 125/128/114 110/130/116 120/142/126
f 126/147/17 130/148/130 133/149/131 132/150/132
f 130/148/130 131/151/133 134/152/134 133/149/131
f 132/150/132 133/149/131 150/153/135 147/154/136
f 133/149/131 134/152/134 135/155/137 150/153/135
f 127/156/14 136/157/138 139/158/139 138/159/140
f 136/157/138 137/160/141 140/161/142 139/158/139
f 138/159/140 139/158/139 134/152/134 131/151/133
f 139/158/139 140/161/142 135/155/137 134/152/134
f 128/162/20 141/163/143 144/164/144 143/165/145
f 141/163/143 142/166/146 145/167/147 144/164/144
f 143/165/145 144/164/144 140/161/142 137/160/141
f 144/164/144 145/167/147 135/155/137 140/161/142
f 129/168/2 146/169/148 149/170/149 148/171/150
f 146/169/148 147/154/136 150/153/135 149/170/149
f 148/171/150 149/170/149 145/167/147 142/166/146
f 149/170/149 150/153/135 135/155/137 145/167/147
f 79/118/15 127/156/14 138/159/140 96/119/105
f 96/119/105 138/159/140 131/151/133 97/104/93
f 97/104/93 131/151/133 130/148/130 82/100/89
f 82/100/89 130/148/130 126/147/17 76/97/16
f 51/72/21 128/162/20 143/165/145 55/73/66
f 55/73/66 143/165/145 137/160/141 56/76/69
f 56/76/69 137/160/141 136/157/138 63/84/76
f 63/84/76 136/157/138 127/156/14 52/81/13
f 4/43/10 102/131/12 113/134/119 21/44/41
f 21/44/41 113/134/119 106/126/112 22/29/29
f 22/29/29 106/126/112 105/123/109 7/25/25
f 7/25/25 105/123/109 101/122/108 1/22/22
f 52/81/13 79/118/15 98/121/107 61/82/74
f 61/82/74 98/121/107 92/116/103 62/85/77
f 62/85/77 92/116/103 91/113/100 68/90/81
f 68/90/81 91/113/100 78/112/9 53/87/8
f 76/97/16 103/137/18 118/140/124 80/98/87
f 80/98/87 118/140/124 112/135/120 81/101/90
f 81/101/90 112/135/120 111/132/117 88/109/97
f 88/109/97 111/132/117 102/131/12 77/106/11
f 3/37/7 78/112/9 93/115/102 16/38/36
f 16/38/36 93/115/102 87/110/98 17/41/39
f 17/41/39 87/110/98 86/107/95 23/46/43
f 23/46/43 86/107/95 77/106/11 4/43/10
f 26/47/44 101/122/108 107/125/111 30/48/45
f 30/48/45 107/125/111 122/129/115 31/51/48
f 31/51/48 122/129/115 121/144/127 38/59/55
f 38/59/55 121/144/127 104/143/1 27/56/3
f 28/172/19 51/173/21 57/174/68 41/175/58
f 41/63/58 57/75/68 72/79/72 42/66/61
f 42/66/61 72/79/72 71/94/84 48/71/65
f 48/71/65 71/94/84 54/93/6 29/68/5
f 2/31/4 54/93/6 73/96/86 11/32/31
f 11/32/31 73/96/86 67/91/82 12/35/34
f 12/35/34 67/91/82 66/88/79 18/40/38
f 18/40/38 66/88/79 53/87/8 3/37/7
f 103/137/18 126/147/17 132/150/132 116/138/122
f 116/138/122 132/150/132 147/154/136 117/141/125
f 117/141/125 147/154/136 146/169/148 123/146/129
f 123/146/129 146/169/148 129/168/2 104/143/1
f 27/56/3 129/168/2 148/171/150 36/57/53
f 36/57/53 148/171/150 142/166/146 37/60/56
f 37/60/56 142/166/146 141/163/143 43/65/60
f 43/65/60 141/163/143 128/162/20 28/62/19
f 1/22/22 26/47/44 32/50/47 5/23/23
f 5/23/23 32/50/47 47/54/51 6/26/26
f 6/26/26 47/54/51 46/69/63 13/34/33
f 13/34/33 46/69/63 29/68/5 2/31/4
f 1/176/22 101/177/108 26/178/44
